ISSS608-VAA - Take Home Ex 4
…
rank<- data %>%
  filter(year==2015) %>%
  group_by(area2,year) %>%
  summarize(import=sum(import),export=sum(export),area2=area2) %>%
  distinct(area2,year,import) %>%
  arrange(desc(import)) 

top_n(rank,n=10,wt=import)

# A tibble: 118 × 3
# Groups:   area2, year [118]
   area2                           year   import
   <chr>                           <chr>   <dbl>
 1 "Mainland China "               2015  579153.
 2 "United States "                2015  458866.
 3 "Malaysia "                     2015  454397.
 4 "Taiwan "                       2015  340659.
 5 "Japan "                        2015  263778.
 6 "Republic Of Korea "            2015  251659.
 7 "Indonesia "                    2015  208731.
 8 "Germany, Federal Republic Of " 2015  123072.
 9 "Switzerland "                  2015  121072.
10 "United Arab Emirates "         2015  118980.
# … with 108 more rows
…
